<?xml version="1.0" encoding="UTF-8"?>
<svg width="10px" height="10px" viewBox="0 0 10 10" version="1.1" xmlns="http://www.w3.org/2000/svg" xmlns:xlink="http://www.w3.org/1999/xlink">
    <!-- Generator: sketchtool 62 (101010) - https://sketch.com -->
    <title>447AD88E-A71B-4508-AD27-1483EB5290EF</title>
    <desc>Created with sketchtool.</desc>
    <g id="Page-1" stroke="none" stroke-width="1" fill="none" fill-rule="evenodd">
        <g id="Muniq-Cart" transform="translate(-1280.000000, -405.000000)" fill="#004936">
            <g id="Group-2-Copy" transform="translate(1272.000000, 398.000000)">
                <g id="Group-7" transform="translate(8.000000, 7.000000)">
                    <rect id="Rectangle" x="0" y="4" width="10" height="2"></rect>
                    <rect id="Rectangle-Copy-5" transform="translate(5.000000, 5.000000) rotate(-270.000000) translate(-5.000000, -5.000000) " x="0" y="4" width="10" height="2"></rect>
                </g>
            </g>
        </g>
    </g>
</svg>
